{
    "engine": {
        "tf" : true,
        "turnsmax" : 3000
    },
    "camera" : {
        "tf" : true,
        "control" : {
            "tf" : true,
            "min" : -50,
            "max" : 50
        }
    },
    "control" : {
        "tf" : true,
        "left" : true,
        "right" : true,
        "forward" : true,
        "back" : true
    },
    "thermometer" : true,
    "oilpress" : true,
    "accum" : true,
    "speed" : true
}
